…
## Read Economist data


```{r}
setwd(here::here('18_Feb_15_2023'))
tibble(
  # Manually copy and pasted data from PDF to a txt file
  input = read_lines('manual_2022.txt')
) 
# # A tibble: 167 × 1                                    
#    input                                           
#    <chr>                                           
#  1 Norway 9.81 1 0 10.00 9.64 10.00 10.00 9.41     
#  2 New Zealand 9.61 2 0 10.00 9.29 10.00 8.75 10.00
#  3 Iceland 9.52 3 2 10.00 9.64 8.89 9.38 9.71      
#  4 Sweden 9.39 4 0 9.58 9.64 8.33 10.00 9.41       
#  5 Finland 9.29 5 -2 10.00 9.64 8.33 8.75 9.71     
#  6 Denmark 9.28 6 0 10.00 9.29 8.33 9.38 9.41      
#  7 Switzerland 9.14 7 2 9.58 9.29 8.33 9.38 9.12   
#  8 Ireland 9.13 8 -1 10.00 8.21 8.33 10.00 9.12    
#  9 Netherlands 9.00 9 2 9.58 8.93 8.33 8.75 9.41   
# 10 Taiwan 8.99 10 -2 10.00 9.64 7.78 8.13 9.41     
# # … with 157 more rows
# # ℹ Use `print(n = ...)` to see more rows
```
…
Grabs first number which luckily is the score


```{r}
tibble(
  input = read_lines('manual_2022.txt'),
  score = parse_number(input)
)
# Warning: 2 parsing failures.                           
# row col expected                                              actual
#  44  -- a number Timor-Leste 7.06 44 -1 9.58 5.93 5.56 6.88 7.35    
# 141  -- a number Guinea-Bissau 2.56 140= -2 4.00 0.00 3.33 3.13 2.35
# 
# # A tibble: 167 × 2
#    input                                            score
#    <chr>                                            <dbl>
#  1 Norway 9.81 1 0 10.00 9.64 10.00 10.00 9.41       9.81
#  2 New Zealand 9.61 2 0 10.00 9.29 10.00 8.75 10.00  9.61
#  3 Iceland 9.52 3 2 10.00 9.64 8.89 9.38 9.71        9.52
#  4 Sweden 9.39 4 0 9.58 9.64 8.33 10.00 9.41         9.39
#  5 Finland 9.29 5 -2 10.00 9.64 8.33 8.75 9.71       9.29
#  6 Denmark 9.28 6 0 10.00 9.29 8.33 9.38 9.41        9.28
#  7 Switzerland 9.14 7 2 9.58 9.29 8.33 9.38 9.12     9.14
#  8 Ireland 9.13 8 -1 10.00 8.21 8.33 10.00 9.12      9.13
#  9 Netherlands 9.00 9 2 9.58 8.93 8.33 8.75 9.41     9   
# 10 Taiwan 8.99 10 -2 10.00 9.64 7.78 8.13 9.41       8.99
# # … with 157 more rows
# # ℹ Use `print(n = ...)` to see more rows
```
…
## Replace those annoying minuses

Let's just replace those minuses with a white space before using `parse_number()`.
We can do that safely here because we extract the first number anyway and this number can't be negative.


```{r}
tibble(
  input = read_lines('manual_2022.txt'),
  # replace - with white space
  input_wo_minus = str_replace(input, '-', ' '),
  score = parse_number(input_wo_minus)
) |> 
  select(-input_wo_minus)
# # A tibble: 167 × 2                                    
#    input                                            score
#    <chr>                                            <dbl>
#  1 Norway 9.81 1 0 10.00 9.64 10.00 10.00 9.41       9.81
#  2 New Zealand 9.61 2 0 10.00 9.29 10.00 8.75 10.00  9.61
#  3 Iceland 9.52 3 2 10.00 9.64 8.89 9.38 9.71        9.52
#  4 Sweden 9.39 4 0 9.58 9.64 8.33 10.00 9.41         9.39
#  5 Finland 9.29 5 -2 10.00 9.64 8.33 8.75 9.71       9.29
#  6 Denmark 9.28 6 0 10.00 9.29 8.33 9.38 9.41        9.28
#  7 Switzerland 9.14 7 2 9.58 9.29 8.33 9.38 9.12     9.14
#  8 Ireland 9.13 8 -1 10.00 8.21 8.33 10.00 9.12      9.13
#  9 Netherlands 9.00 9 2 9.58 8.93 8.33 8.75 9.41     9   
# 10 Taiwan 8.99 10 -2 10.00 9.64 7.78 8.13 9.41       8.99
# # … with 157 more rows
# # ℹ Use `print(n = ...)` to see more rows
```
…
