oct_25_2023
…
Everyone is talking about how you can use {shiny} apps without a server now using the powers of {webr}. That’s pretty cool. And I will talk about this in this newsletter at some point.

But today, I want to show you that R allowed you to build small interactive dashboards without a server for some time now. If you only need a few toggles to scroll through your data, then {crosstalk} can help you build just that. No Shiny server or long load times using {webr} necessrary.

Shared data with {crosstalk}

At the heart of using crosstalk lies a shared data set. This allows all the widgets that we throw into the dashboard to know the same things. Here’s how that works. First, we find prepare a data set that we want to share.

library(tidyverse)
data_prep <- economics |> 
  mutate(
    psavert = psavert / 100
  )
data_prep
## # A tibble: 574 × 6
##    date         pce    pop psavert uempmed unemploy
##    <date>     <dbl>  <dbl>   <dbl>   <dbl>    <dbl>
##  1 1967-07-01  507. 198712   0.126     4.5     2944
##  2 1967-08-01  510. 198911   0.126     4.7     2945
##  3 1967-09-01  516. 199113   0.119     4.6     2958
##  4 1967-10-01  512. 199311   0.129     4.9     3143
##  5 1967-11-01  517. 199498   0.128     4.7     3066
##  6 1967-12-01  525. 199657   0.118     4.8     3018
##  7 1968-01-01  531. 199808   0.117     5.1     2878
##  8 1968-02-01  534. 199920   0.123     4.5     3001
##  9 1968-03-01  544. 200056   0.117     4.1     2877
## 10 1968-04-01  544  200208   0.123     4.6     2709
## # ℹ 564 more rows
…
