aug_30_2023
…
library(ggtext)
library(ggdist)
theme_set(
  theme_minimal(
    base_size = 16,
    base_family = 'Source Sans Pro'
  ) +
    theme(panel.grid.minor = element_blank())
) 

systemfonts::system_fonts() |> 
  select(family, name,  path, style) |> 
  filter(str_detect(family, 'Source'))

# A tibble: 24 × 4
   family          name                       path                         style
   <chr>           <chr>                      <chr>                        <chr>
 1 Source Sans Pro SourceSansPro-ExtraLight   /home/albert/.local/share/f… Extr…
 2 Source Sans Pro SourceSansPro-Bold         /usr/local/share/fonts/Sour… Bold 
 3 Source Sans Pro SourceSansPro-ExtraLightIt /home/albert/.local/share/f… Extr…
 4 Source Sans Pro SourceSansPro-Black        /usr/local/share/fonts/Sour… Black
 5 Source Sans Pro SourceSansPro-Semibold     /home/albert/.local/share/f… Semi…
 6 Source Sans Pro SourceSansPro-ExtraLight   /usr/local/share/fonts/Sour… Extr…
 7 Source Sans Pro SourceSansPro-Regular      /home/albert/.local/share/f… Regu…
 8 Source Sans Pro SourceSansPro-Light        /home/albert/.local/share/f… Light
 9 Source Sans Pro SourceSansPro-It           /home/albert/.local/share/f… Ital…
10 Source Sans Pro SourceSansPro-BoldIt       /usr/local/share/fonts/Sour… Bold…
# ℹ 14 more rows
…
